…
hotels_no_usa_pipe <- hotels %>% 
  filter(country != "USA" & lead_time < 100) %>% 
  select(hotel, is_canceled, lead_time) %>% 
  filter(hotel == "Resort Hotel") %>% 
  arrange(lead_time)

# on the fly
hotels %>%
  filter(
    country != "USA", 
    lead_time < 1
    )

## # A tibble: 6,174 x 32
##    hotel        is_canceled lead_time arrival_date_year arrival_date_month
##    <chr>              <dbl>     <dbl>             <dbl> <chr>             
##  1 Resort Hotel           0         0              2015 July              
##  2 Resort Hotel           0         0              2015 July              
##  3 Resort Hotel           0         0              2015 July              
##  4 Resort Hotel           0         0              2015 July              
##  5 Resort Hotel           0         0              2015 July              
##  6 Resort Hotel           0         0              2015 July              
##  7 Resort Hotel           0         0              2015 July              
##  8 Resort Hotel           0         0              2015 July              
##  9 Resort Hotel           0         0              2015 July              
## 10 Resort Hotel           0         0              2015 July              
## # ... with 6,164 more rows, and 27 more variables:
## #   arrival_date_week_number <dbl>, arrival_date_day_of_month <dbl>,
## #   stays_in_weekend_nights <dbl>, stays_in_week_nights <dbl>, adults <dbl>,
## #   children <dbl>, babies <dbl>, meal <chr>, country <chr>,
## #   market_segment <chr>, distribution_channel <chr>, is_repeated_guest <dbl>,
## #   previous_cancellations <dbl>, previous_bookings_not_canceled <dbl>,
## #   reserved_room_type <chr>, assigned_room_type <chr>, ...
…
